2 Data input and preprocessing – mapa tutorial
…
variable_info
# $data
# # A tibble: 183 × 8
#    ensembl            entrezid  uniprot symbol       Symbol  `Gene type`    Tissue     Cluster  
#    <chr>              <chr>     <chr>   <chr>        <chr>   <chr>          <chr>      <chr>    
#  1 ENSMFAG00000000264 NA        NA      NA           APH1B   protein_coding Liver (LL) Cluster U
#  2 ENSMFAG00000000283 NA        NA      NA           PLCG1   protein_coding Liver (LL) Cluster U
#  3 ENSMFAG00000000444 102141791 NA      EPS15L1      EPS15L1 protein_coding Liver (LL) Cluster U
#  4 ENSMFAG00000000464 NA        NA      NA           RCOR3   protein_coding Liver (LL) Cluster U
#  5 ENSMFAG00000000583 101865185 NA      EXOC7        EXOC7   protein_coding Liver (LL) Cluster U
#  6 ENSMFAG00000000608 NA        NA      NA           CD99    protein_coding Liver (LL) Cluster U
#  7 ENSMFAG00000000627 102121020 NA      MTFMT        MTFMT   protein_coding Liver (LL) Cluster U
#  8 ENSMFAG00000000639 NA        NA      NA           GJC2    protein_coding Liver (LL) Cluster U
#  9 ENSMFAG00000000737 101866375 NA      MKRN1        MKRN1   protein_coding Liver (LL) Cluster U
# 10 ENSMFAG00000000852 102131151 NA      LOC102131151 CYB5R1  protein_coding Liver (LL) Cluster U
# # ℹ 173 more rows
# # ℹ Use `print(n = ...)` to see more rows
# 
# $orgdb
# OrgDb object:
# | DBSCHEMAVERSION: 2.1
# | DBSCHEMA: NOSCHEMA_DB
# | ORGANISM: Simia fascicularis
# | SPECIES: Simia fascicularis
…
